<svg xmlns="http://www.w3.org/2000/svg" viewBox="0 0 522.18 178.13">
    <path d="M522.18 178.13H430V86h92.15zm-86-6.16H516V92.15h-79.81z" fill="#5c27fb" />
    <path d="M436.09 178.13h-92.15V86h92.15zm-86-6.16h79.83V92.15H350.1z" fill="#5c27fb" />
    <path d="M350.08 178.13h-92.15V86h92.15zm-86-6.16h79.82V92.15h-79.8z" fill="#5c27fb" />
    <path d="M264.08 178.13h-92.15V86h92.15zm-86-6.16h79.82V92.15h-79.8z" fill="#5c27fb" />
    <path d="M350.08 92.14h-92.15V0h92.15zM264.1 86h79.82V6.16H264.1z" fill="#5c27fb" />
    <path d="M264.08 92.14h-92.15V0h92.15zM178.1 86h79.82V6.16H178.1z" fill="#5c27fb" />
    <path d="M178.14 92.14H86V0h92.15zM92.15 86H172V6.16H92.15z" fill="#5c27fb" />
    <path d="M6.16 86H86V6.16H6.16zm86 6.16H0V0h92.15zM474.19 177.73H472a2.27 2.27 0 0 1-1.51-.57L436 146.71v28.74a2.29 2.29 0 0 1-2.28 2.28h-1.4a2.28 2.28 0 0 1-2.28-2.28v-65.2a2.28 2.28 0 0 1 2.28-2.27h1.4a2.28 2.28 0 0 1 2.28 2.27v28.49l30.73-30.11a2.26 2.26 0 0 1 1.59-.65h1.86a2.28 2.28 0 0 1 1.6 3.9l-31.28 30.74 35.19 31.12a2.28 2.28 0 0 1-1.5 4zM398 178.13h-2.19a2.31 2.31 0 0 1-1.53-.58l-30-27.15a2.31 2.31 0 0 1-.75-1.69v-1.4a2.28 2.28 0 0 1 2.28-2.27h12.69c5 0 9.09-1.65 12-4.77a15.55 15.55 0 0 0 4-10.58c0-7.4-5-15.35-15.91-15.35h-32.27a2.27 2.27 0 0 1-2.23-2.28v-1.46a2.28 2.28 0 0 1 2.28-2.27h32.22c14.35 0 21.86 10.74 21.86 21.35a21.6 21.6 0 0 1-5.49 14.65c-4 4.38-9.66 6.7-16.37 6.7h-4.63l25.43 23a2.19 2.19 0 0 1 1 1.88 2.28 2.28 0 0 1-2.39 2.22zM321.39 178.13h-1.8a2.28 2.28 0 0 1-2.07-1.32l-10.78-23.32-16-36.24-15.89 36.21-10.8 23.35a2.28 2.28 0 0 1-2.06 1.32h-1.8a2.28 2.28 0 0 1-2.08-3.21l29.7-66.22a2.28 2.28 0 0 1 2.08-1.34h1.79a2.27 2.27 0 0 1 2.08 1.34l29.69 66.22a2.27 2.27 0 0 1-2.07 3.21zM178 144.15h18.81a15.13 15.13 0 0 0 11.91-5.08 17.51 17.51 0 0 0 4-11.44c0-7.95-5-16.51-15.9-16.51H178zm-2.27 30.77h-1.5a2.29 2.29 0 0 1-2.28-2.28v-65.29a2.29 2.29 0 0 1 2.28-2.28h22.58c14.35 0 21.86 11.33 21.86 22.52A23.53 23.53 0 0 1 213.2 143c-4 4.65-9.67 7.11-16.41 7.11H178v22.54a2.28 2.28 0 0 1-2.29 2.27zM294.77 26.54A30.94 30.94 0 0 0 273 35.39a28.83 28.83 0 0 0 0 41.85 31.22 31.22 0 0 0 43.58 0 29 29 0 0 0 0-41.85 31 31 0 0 0-21.81-8.85zm0 65.6a37.07 37.07 0 0 1-26-10.54 34.91 34.91 0 0 1 0-50.58 37.46 37.46 0 0 1 52.08 0 34.9 34.9 0 0 1 0 50.6 37.07 37.07 0 0 1-26.08 10.52zM178 86.19h25.24c9.15 0 13.32-7.31 13.32-14.09S212.42 58 203.27 58H178zM178 52h22.63A10.48 10.48 0 0 0 211 45.09a13.87 13.87 0 0 0 0-9.81 10.45 10.45 0 0 0-10.27-6.84H178zm25.24 40.18h-29a2.28 2.28 0 0 1-2.24-2.31v-65.2a2.28 2.28 0 0 1 2.28-2.28h26.4a16.25 16.25 0 0 1 15.83 10.68 20.75 20.75 0 0 1 0 14.22 17.14 17.14 0 0 1-4.51 6.63c8.09 3.89 11.1 12.81 10.45 20.17-.79 8.99-7.02 18.05-19.18 18.05z" fill="#5c27fb" />
    <path d="M111.12 92.14C98.94 92.14 86 84.87 86 71.4V23.92a2.28 2.28 0 0 1 2.28-2.27h1.49A2.28 2.28 0 0 1 92 23.92v47.57c0 9.49 9.83 14.6 19.08 14.6s19.12-5.15 19.12-14.69V23.92a2.28 2.28 0 0 1 2.28-2.27H134a2.28 2.28 0 0 1 2.28 2.27v47.57c-.03 13.42-12.98 20.65-25.16 20.65zM35.3 92.14a33.45 33.45 0 0 1-24.21-10.3 35.27 35.27 0 0 1 0-49.15 33.6 33.6 0 0 1 48.42 0 34.85 34.85 0 0 1 7.18 10.88 2.28 2.28 0 0 1-2.1 3.15H63a2.28 2.28 0 0 1-2.09-1.37 28.39 28.39 0 0 0-5.71-8.46 27.67 27.67 0 0 0-39.81 0 29.14 29.14 0 0 0-8.31 20.33 28.77 28.77 0 0 0 8.3 20.32 27.46 27.46 0 0 0 39.83 0 28 28 0 0 0 5.7-8.36A2.29 2.29 0 0 1 63 67.82h1.59a2.28 2.28 0 0 1 2.1 3.18 35.45 35.45 0 0 1-7.18 10.87A33.45 33.45 0 0 1 35.3 92.14z" fill="#5c27fb" />
</svg>
