<svg xmlns="http://www.w3.org/2000/svg" viewBox="0 0 189.16 115.13">
    <path d="M3.9 0l48.12 48 48-48v96H84.18V38.64L52.02 70.68 3.9 22.32V0zM184.26 48a45.42 45.42 0 0 1-3.72 18.48 52.35 52.35 0 0 1-10.32 15.36 48.72 48.72 0 0 1-15.36 10.32 46.07 46.07 0 0 1-18.6 3.84h-31.92l16-16.08h16a33 33 0 0 0 12.48-2.4 31.46 31.46 0 0 0 10.2-7 34.6 34.6 0 0 0 6.84-10.2 31.57 31.57 0 0 0 0-24.72 32.8 32.8 0 0 0-7-10.2 33.46 33.46 0 0 0-10.2-7A32.86 32.86 0 0 0 136.3 16h-16L104.34 0h31.92a46.49 46.49 0 0 1 18.6 3.84 49.57 49.57 0 0 1 15.24 10.32 50.46 50.46 0 0 1 10.44 15.36A45.42 45.42 0 0 1 184.26 48z" fill="#581b53" />
    <path d="M.6 114.71v.17H.25v-11.77a.18.18 0 0 1 .33-.11l5.11 11.24 5.1-11.24a.18.18 0 0 1 .33.07v11.77h-.35V103.88l-4.92 10.9a.18.18 0 0 1-.31 0L.6 103.92zM13.32 114.78v.1h-.42l.1-.25L18.1 103a.18.18 0 0 1 .31 0l5.1 11.59.1.25h-.38v-.1l-4.94-11.23zM25.72 114.71v.17h-.35v-11.77a.19.19 0 0 1 .32-.1l8.09 11.15v-11.17h.35v11.77a.18.18 0 0 1-.31.1l-8.1-11.15zM37.6 103.11v-.17h.35v11.94h-.35v-11.77zM48.56 102.94h.17v.35h-7v5.44h5.07v.35h-5.09v5.8h-.36v-11.77a.17.17 0 0 1 .18-.17zM49.88 108.91c0-3.32 2.38-6 5.26-6s5.27 2.65 5.27 6-2.37 6-5.27 6-5.26-2.68-5.26-6zm.35 0c0 3.11 2.21 5.62 4.91 5.62s4.92-2.51 4.92-5.62-2.19-5.62-4.92-5.62-4.91 2.51-4.91 5.62zM63 103.11v-.17h.35v11.59H70v.35h-6.86a.17.17 0 0 1-.18-.17zM72 114.88a.17.17 0 0 1-.18-.17v-11.6a.17.17 0 0 1 .18-.17h4.41a5.32 5.32 0 0 1 4.55 6 5.32 5.32 0 0 1-4.55 6H72zm.17-.35h4.23a5 5 0 0 0 4.21-5.6 5 5 0 0 0-4.21-5.6h-4.22zM91 114.88a.17.17 0 0 1-.18-.17v-11.6a.17.17 0 0 1 .18-.17h4.41a5.31 5.31 0 0 1 4.55 6 5.31 5.31 0 0 1-4.55 6H91zm.18-.35h4.21a5 5 0 0 0 4.22-5.6 5 5 0 0 0-4.22-5.6h-4.23zM102.68 103.11v-.17h.35v11.94h-.35v-11.77zM106.79 114.71v.17h-.35v-11.77a.18.18 0 0 1 .33-.07l5.11 11.24L117 103a.18.18 0 0 1 .33.07v11.77H117V103.88l-5 10.9a.19.19 0 0 1-.32 0l-4.93-10.86zM128.83 102.94h.17v.35h-8.08v5.44h5.92v.35h-5.92v5.45H129v.35h-8.26a.16.16 0 0 1-.17-.17v-11.6a.16.16 0 0 1 .17-.17zM131.91 114.71v.17h-.35v-11.77a.18.18 0 0 1 .31-.1l8.1 11.15v-11.17h.35v11.77a.18.18 0 0 1-.31.1l-8.1-11.15zM150.6 106v.18h-.35V106c0-1.53-1.58-2.72-3.5-2.72s-3.49 1.19-3.49 2.72c0 2.71 7.72 2.71 7.71 5.8 0 1.63-1.88 3.07-4.22 3.07s-4.21-1.42-4.21-3.07v-.18h.35v.18c0 1.51 1.76 2.72 3.86 2.72s3.87-1.23 3.87-2.72c0-2.76-7.7-2.73-7.71-5.8 0-1.67 1.68-3.07 3.84-3.07s3.85 1.41 3.85 3.07zM153.36 103.11v-.17h.35v11.94h-.35v-11.77zM156.41 108.91c0-3.32 2.39-6 5.27-6s5.27 2.65 5.27 6-2.37 6-5.27 6-5.27-2.68-5.27-6zm.36 0c0 3.11 2.21 5.62 4.91 5.62s4.92-2.51 4.92-5.62-2.2-5.62-4.92-5.62-4.91 2.51-4.91 5.62zM169.85 114.71v.17h-.35v-11.77a.19.19 0 0 1 .32-.1l8.09 11.15v-11.17h.35v11.77a.19.19 0 0 1-.32.1l-8.1-11.15zM188.54 106v.18h-.35V106c0-1.53-1.58-2.72-3.49-2.72s-3.5 1.19-3.5 2.72c0 2.71 7.73 2.71 7.71 5.8 0 1.63-1.88 3.07-4.21 3.07s-4.22-1.42-4.22-3.07v-.18h.35v.18c0 1.51 1.76 2.72 3.87 2.72s3.86-1.23 3.86-2.72c0-2.76-7.69-2.73-7.71-5.8 0-1.67 1.69-3.07 3.85-3.07s3.84 1.41 3.84 3.07z" fill="#a3802d" stroke="#a3802d" stroke-miterlimit="10" stroke-width="1pt"/>
</svg>
